Stat Learning Project
…
print(Sys.time() - start) # How long did the training take?

Time difference of 22.58243 secs

collect_metrics(xg_rs, summarize = TRUE) # get model metrics

# A tibble: 4,000 × 7
   trees .metric   .estimator  mean     n std_err .config                
   <int> <chr>     <chr>      <dbl> <int>   <dbl> <chr>                  
 1     1 f_meas    binary     0.894    10  0.0216 Preprocessor1_Model0001
 2     1 precision binary     0.909    10  0.0262 Preprocessor1_Model0001
 3     1 recall    binary     0.889    10  0.0323 Preprocessor1_Model0001
 4     1 roc_auc   binary     0.960    10  0.0156 Preprocessor1_Model0001
 5     2 f_meas    binary     0.882    10  0.0240 Preprocessor1_Model0002
 6     2 precision binary     0.901    10  0.0314 Preprocessor1_Model0002
 7     2 recall    binary     0.878    10  0.0362 Preprocessor1_Model0002
 8     2 roc_auc   binary     0.970    10  0.0114 Preprocessor1_Model0002
 9     3 f_meas    binary     0.890    10  0.0233 Preprocessor1_Model0003
10     3 precision binary     0.896    10  0.0279 Preprocessor1_Model0003
# ℹ 3,990 more rows
…
# A tibble: 4 × 4
  .metric   .estimator .estimate .config             
  <chr>     <chr>          <dbl> <chr>               
1 f_meas    binary         0.943 Preprocessor1_Model1
2 precision binary         0.932 Preprocessor1_Model1
3 recall    binary         0.953 Preprocessor1_Model1
4 roc_auc   binary         0.997 Preprocessor1_Model1

# Save... a bit unnecessary since training only takes a few seconds
# saveRDS(xg_final, "model_xgboost_feature_selected.RDS")

collect_predictions(xg_final) %>% 
  select(-.config)

# A tibble: 115 × 6
   id               .pred_class  .row .pred_M .pred_B diagnosis
   <chr>            <fct>       <int>   <dbl>   <dbl> <fct>    
 1 train/test split M               7  0.988   0.0123 M        
 2 train/test split M               9  0.971   0.0287 M        
 3 train/test split M              26  0.988   0.0123 M        
 4 train/test split M              27  0.978   0.0219 M        
 5 train/test split M              34  0.988   0.0123 M        
 6 train/test split B              39  0.388   0.612  M        
 7 train/test split M              43  0.988   0.0123 M        
 8 train/test split M              48  0.915   0.0847 M        
 9 train/test split M              55  0.977   0.0225 M        
10 train/test split B              56  0.0199  0.980  B        
# ℹ 105 more rows
…
# Tuning for choosing best penalty - although pretty good already
# model tuning
tune_spec <- logistic_reg(penalty = tune(), mixture = 1) %>%
  set_mode("classification") %>%
  set_engine("glmnet")

# create a regular grid of values to try
# grid_refuls chooses sensible values to try for regularization penalty
lambda_grid <- grid_regular(penalty(), levels = 30)
lambda_grid

# A tibble: 30 × 1
    penalty
      <dbl>
 1 1   e-10
 2 2.21e-10
 3 4.89e-10
 4 1.08e- 9
 5 2.40e- 9
 6 5.30e- 9
 7 1.17e- 8
 8 2.59e- 8
 9 5.74e- 8
10 1.27e- 7
# ℹ 20 more rows
…
# penalty for best ROC is 0.042
chosen_auc <- tune_rs %>%
  select_by_one_std_err(metric = target_metric, -penalty)

final_lasso <- finalize_workflow(tune_wf, chosen_auc)

fitted_lasso <- fit(final_lasso, train)

fitted_lasso %>%
  extract_fit_parsnip() %>%
  tidy() %>%
  arrange(estimate)

# A tibble: 23 × 3
   term                  estimate penalty
   <chr>                    <dbl>   <dbl>
 1 smoothness_worst     -30.1     0.00853
 2 concave.points_worst -17.6     0.00853
 3 concave.points_mean   -7.70    0.00853
 4 symmetry_worst        -6.54    0.00853
 5 concavity_worst       -0.391   0.00853
 6 texture_mean          -0.204   0.00853
 7 perimeter_worst       -0.0486  0.00853
 8 area_worst            -0.00395 0.00853
 9 perimeter_mean         0       0.00853
10 area_mean              0       0.00853
# ℹ 13 more rows
…
